{
    "00-baseline": 61697,
    "archlinux": 61698,
    "bitcoin": 61699,
    "codeberg": 61700,
    "github": 61701,
    "gitlab": 61702,
    "ko-fi": 61703,
    "liberapay": 61704,
    "mail": 61705,
    "matrix": 61706,
    "new_tab": 61707,
    "paypal": 61708,
    "phone": 61709,
    "teamspeak": 61710,
    "telegram": 61711,
    "wire": 61712
}