<?xml version="1.0" encoding="UTF-8" standalone="no"?>
<svg
   xmlns:dc="http://purl.org/dc/elements/1.1/"
   xmlns:cc="http://creativecommons.org/ns#"
   xmlns:rdf="http://www.w3.org/1999/02/22-rdf-syntax-ns#"
   xmlns:svg="http://www.w3.org/2000/svg"
   xmlns="http://www.w3.org/2000/svg"
   xmlns:sodipodi="http://sodipodi.sourceforge.net/DTD/sodipodi-0.dtd"
   xmlns:inkscape="http://www.inkscape.org/namespaces/inkscape"
   id="svg8"
   version="1.1"
   viewBox="0 0 300 200"
   height="200mm"
   width="300mm"
   sodipodi:docname="bg.svg"
   inkscape:version="0.92.4 5da689c313, 2019-01-14">
  <sodipodi:namedview
     pagecolor="#ffffff"
     bordercolor="#666666"
     borderopacity="1"
     objecttolerance="10"
     gridtolerance="10"
     guidetolerance="10"
     inkscape:pageopacity="0"
     inkscape:pageshadow="2"
     inkscape:window-width="640"
     inkscape:window-height="480"
     id="namedview13"
     showgrid="false"
     inkscape:snap-bbox="true"
     inkscape:bbox-paths="true"
     inkscape:bbox-nodes="true"
     inkscape:snap-bbox-edge-midpoints="true"
     inkscape:snap-bbox-midpoints="true"
     inkscape:snap-intersection-paths="true"
     inkscape:object-paths="true"
     showguides="true"
     inkscape:guide-bbox="true"
     inkscape:snap-page="true"
     inkscape:current-layer="svg8">
    <sodipodi:guide
       position="0,99.999999"
       orientation="0,1"
       id="guide901"
       inkscape:locked="false"
       inkscape:label=""
       inkscape:color="rgb(0,0,255)" />
    <sodipodi:guide
       position="150,0"
       orientation="1,0"
       id="guide903"
       inkscape:locked="false"
       inkscape:label=""
       inkscape:color="rgb(0,0,255)" />
    <sodipodi:guide
       position="74.999999,0"
       orientation="1,0"
       id="guide907"
       inkscape:locked="false"
       inkscape:label=""
       inkscape:color="rgb(0,0,255)" />
    <sodipodi:guide
       position="225,0"
       orientation="1,0"
       id="guide909"
       inkscape:locked="false"
       inkscape:label=""
       inkscape:color="rgb(0,0,255)" />
    <sodipodi:guide
       position="0,50"
       orientation="0,1"
       id="guide911"
       inkscape:locked="false"
       inkscape:label=""
       inkscape:color="rgb(0,0,255)" />
    <sodipodi:guide
       position="0,150"
       orientation="0,1"
       id="guide913"
       inkscape:locked="false"
       inkscape:label=""
       inkscape:color="rgb(0,0,255)" />
  </sodipodi:namedview>
  <defs
     id="defs2" />
  <metadata
     id="metadata5">
    <rdf:RDF>
      <cc:Work
         rdf:about="">
        <dc:format>image/svg+xml</dc:format>
        <dc:type
           rdf:resource="http://purl.org/dc/dcmitype/StillImage" />
        <dc:title></dc:title>
      </cc:Work>
    </rdf:RDF>
  </metadata>
  <path
     style="fill:#000000;fill-opacity:0.05;stroke:none;stroke-width:1;stroke-linecap:butt;stroke-linejoin:miter;stroke-miterlimit:4;stroke-dasharray:none;stroke-opacity:1"
     d="m 0,217.20473 c 0,0 44.953832,-50.00005 75.000071,-50.00005 60.092529,0 89.907619,100.0001 150.000149,100.0001 30.04627,0 74.99955,-50.00005 74.99955,-50.00005 v -50.00005 c 0,0 -44.95329,50.00005 -74.99955,50.00005 -60.09252,0 -89.90763,-100.00038 -150.000149,-100.00038 C 44.953811,117.20435 0,167.20468 0,167.20468 Z"
     id="path1011"
     inkscape:connector-curvature="0" />
  <path
     style="fill:#000000;fill-opacity:0.05;stroke:none;stroke-width:1;stroke-linecap:butt;stroke-linejoin:miter;stroke-miterlimit:4;stroke-dasharray:none;stroke-opacity:1"
     d="m 0,121.95467 c 0,0 44.953831,-50.000032 75.000071,-50.000032 60.092529,0 89.907619,100.000082 150.000149,100.000082 30.04627,0 74.99956,-50.00005 74.99956,-50.00005 V 71.954638 c 0,0 -44.9533,50.000032 -74.99956,50.000032 -60.09252,0 -89.90763,-100.000335 -150.000149,-100.000335 C 44.95381,21.954335 0,71.954638 0,71.954638 Z"
     id="path1011-6"
     inkscape:connector-curvature="0" />
  <path
     style="fill:#000000;fill-opacity:0.05;stroke:none;stroke-width:1;stroke-linecap:butt;stroke-linejoin:miter;stroke-miterlimit:4;stroke-dasharray:none;stroke-opacity:1"
     d="m 0,21.412985 c 0,0 44.953831,-50.000018 75.000071,-50.000018 60.092529,0 89.907619,100.000041 150.000149,100.000041 30.04627,0 74.99956,-50.000023 74.99956,-50.000023 v -50.000018 c 0,0 -44.9533,50.000018 -74.99956,50.000018 -60.09252,0 -89.90763,-100.000321 -150.000149,-100.000321 C 44.95381,-78.587336 0,-28.587033 0,-28.587033 Z"
     id="path1011-2"
     inkscape:connector-curvature="0" />
</svg>
